{
    "n-richtexteditor": {
        "name": "n-richtexteditor",
        "version": "1.0.4",
        "packageType": "studio-package",
        "deps": {
            "@ckeditor/ckeditor5-angular": {
                "name": "@ckeditor/ckeditor5-angular",
                "version": "1.1.0",
                "packageType": "angular-package"
            }
        },
        "parentDeps": {}
    },
    "@ckeditor/ckeditor5-angular": {
        "name": "@ckeditor/ckeditor5-angular",
        "version": "1.1.0",
        "packageType": "angular-package",
        "deps": {},
        "parentDeps": {
            "n-richtexteditor": "1.0.4"
        }
    }
}
